vaki-autoelectron-emission/BOTH-3.csv

Record Length,2500,Points,-1.8800,-20.0000,,Record Length,2500,Points,-1.8800,0.0,
Sample Interval,4.00000E-3,s,-1.8760,-20.0000,,Sample Interval,4.00000E-3,s,-1.8760,-199.99999E-3,
Trigger Point,469.999976,Samples,-1.8720,0.0,,Trigger Point,469.999976,Samples,-1.8720,-199.99999E-3,
,,,-1.8680,-20.0000,,,,,-1.8680,0.0,
,,,-1.8640,-20.0000,,,,,-1.8640,0.0,
,,,-1.8600,0.0,,,,,-1.8600,-199.99999E-3,
Source,CH1,,-1.8560,0.0,,Source,CH3,,-1.8560,-199.99999E-3,
Vertical Units,Volts,,-1.8520,-20.0000,,Vertical Units,Volts,,-1.8520,-199.99999E-3,
Vertical Scale,511.953125,,-1.8480,-20.0000,,Vertical Scale,5.11953,,-1.8480,0.0,
Vertical Offset,0,,-1.8440,-20.0000,,Vertical Offset,0,,-1.8440,-199.99999E-3,
Horizontal Units,s,,-1.8400,-20.0000,,Horizontal Units,s,,-1.8400,0.0,
Horizontal Scale,1.0000,,-1.8360,-20.0000,,Horizontal Scale,1.0000,,-1.8360,-199.99999E-3,
Pt Fmt,Y,,-1.8320,-20.0000,,Pt Fmt,Y,,-1.8320,-199.99999E-3,
Yzero,-2.92996,,-1.8280,-20.0000,,Yzero,-2.92996,,-1.8280,0.0,
Probe Atten,10.0000,,-1.8240,-20.0000,,Probe Atten,10.0000,,-1.8240,0.0,
,,,-1.8200,-20.0000,,,,,-1.8200,-199.99999E-3,
Note,TDS 2014 - 17:32:24   15.09.2023,,-1.8160,-20.0000,,Note,TDS 2014 - 17:32:24   15.09.2023,,-1.8160,-199.99999E-3,
,,,-1.8120,-20.0000,,,,,-1.8120,-199.99999E-3,
,,,-1.8080,-20.0000,,,,,-1.8080,-199.99999E-3,
,,,-1.8040,-20.0000,,,,,-1.8040,-199.99999E-3,
,,,-1.8000,-20.0000,,,,,-1.8000,0.0,
,,,-1.7960,-20.0000,,,,,-1.7960,0.0,
,,,-1.7920,0.0,,,,,-1.7920,-199.99999E-3,
,,,-1.7880,-20.0000,,,,,-1.7880,0.0,
,,,-1.7840,-20.0000,,,,,-1.7840,0.0,
,,,-1.7800,-20.0000,,,,,-1.7800,0.0,
,,,-1.7760,-20.0000,,,,,-1.7760,0.0,
,,,-1.7720,0.0,,,,,-1.7720,0.0,
,,,-1.7680,-20.0000,,,,,-1.7680,-199.99999E-3,
,,,-1.7640,-20.0000,,,,,-1.7640,0.0,
,,,-1.7600,-20.0000,,,,,-1.7600,0.0,
,,,-1.7560,0.0,,,,,-1.7560,-199.99999E-3,
,,,-1.7520,-20.0000,,,,,-1.7520,-199.99999E-3,
,,,-1.7480,-20.0000,,,,,-1.7480,-199.99999E-3,
,,,-1.7440,-20.0000,,,,,-1.7440,-199.99999E-3,
,,,-1.7400,-20.0000,,,,,-1.7400,0.0,
,,,-1.7360,-20.0000,,,,,-1.7360,-199.99999E-3,
,,,-1.7320,0.0,,,,,-1.7320,-199.99999E-3,
,,,-1.7280,0.0,,,,,-1.7280,0.0,
,,,-1.7240,-20.0000,,,,,-1.7240,0.0,
,,,-1.7200,0.0,,,,,-1.7200,-199.99999E-3,
,,,-1.7160,-20.0000,,,,,-1.7160,-199.99999E-3,
,,,-1.7120,0.0,,,,,-1.7120,-199.99999E-3,
,,,-1.7080,-20.0000,,,,,-1.7080,-199.99999E-3,
,,,-1.7040,-20.0000,,,,,-1.7040,-199.99999E-3,
,,,-1.7000,-20.0000,,,,,-1.7000,0.0,
,,,-1.6960,-20.0000,,,,,-1.6960,-199.99999E-3,
,,,-1.6920,-20.0000,,,,,-1.6920,0.0,
,,,-1.6880,0.0,,,,,-1.6880,-199.99999E-3,
,,,-1.6840,-20.0000,,,,,-1.6840,-199.99999E-3,
,,,-1.6800,-20.0000,,,,,-1.6800,0.0,
,,,-1.6760,-20.0000,,,,,-1.6760,0.0,
,,,-1.6720,-20.0000,,,,,-1.6720,-199.99999E-3,
,,,-1.6680,-20.0000,,,,,-1.6680,0.0,
,,,-1.6640,0.0,,,,,-1.6640,-199.99999E-3,
,,,-1.6600,0.0,,,,,-1.6600,-199.99999E-3,
,,,-1.6560,0.0,,,,,-1.6560,0.0,
,,,-1.6520,0.0,,,,,-1.6520,-199.99999E-3,
,,,-1.6480,-20.0000,,,,,-1.6480,0.0,
,,,-1.6440,-20.0000,,,,,-1.6440,0.0,
,,,-1.6400,-20.0000,,,,,-1.6400,-199.99999E-3,
,,,-1.6360,-20.0000,,,,,-1.6360,0.0,
,,,-1.6320,-20.0000,,,,,-1.6320,0.0,
,,,-1.6280,-20.0000,,,,,-1.6280,0.0,
,,,-1.6240,-20.0000,,,,,-1.6240,-199.99999E-3,
,,,-1.6200,-20.0000,,,,,-1.6200,0.0,
,,,-1.6160,-20.0000,,,,,-1.6160,0.0,
,,,-1.6120,-20.0000,,,,,-1.6120,-199.99999E-3,
,,,-1.6080,0.0,,,,,-1.6080,-199.99999E-3,
,,,-1.6040,-40.00000,,,,,-1.6040,0.0,
,,,-1.6000,-20.0000,,,,,-1.6000,-199.99999E-3,
,,,-1.5960,-20.0000,,,,,-1.5960,0.0,
,,,-1.5920,-20.0000,,,,,-1.5920,0.0,
,,,-1.5880,-20.0000,,,,,-1.5880,-199.99999E-3,
,,,-1.5840,-20.0000,,,,,-1.5840,0.0,
,,,-1.5800,-20.0000,,,,,-1.5800,0.0,
,,,-1.5760,0.0,,,,,-1.5760,-199.99999E-3,
,,,-1.5720,0.0,,,,,-1.5720,-199.99999E-3,
,,,-1.5680,0.0,,,,,-1.5680,-199.99999E-3,
,,,-1.5640,0.0,,,,,-1.5640,0.0,
,,,-1.5600,0.0,,,,,-1.5600,-199.99999E-3,
,,,-1.5560,-20.0000,,,,,-1.5560,0.0,
,,,-1.5520,-20.0000,,,,,-1.5520,-199.99999E-3,
,,,-1.5480,-20.0000,,,,,-1.5480,-199.99999E-3,
,,,-1.5440,-20.0000,,,,,-1.5440,-199.99999E-3,
,,,-1.5400,-20.0000,,,,,-1.5400,0.0,
,,,-1.5360,-20.0000,,,,,-1.5360,-199.99999E-3,
,,,-1.5320,-20.0000,,,,,-1.5320,0.0,
,,,-1.5280,-20.0000,,,,,-1.5280,0.0,
,,,-1.5240,-20.0000,,,,,-1.5240,-199.99999E-3,
,,,-1.5200,0.0,,,,,-1.5200,0.0,
,,,-1.5160,-20.0000,,,,,-1.5160,0.0,
,,,-1.5120,-20.0000,,,,,-1.5120,0.0,
,,,-1.5080,-20.0000,,,,,-1.5080,-199.99999E-3,
,,,-1.5040,-20.0000,,,,,-1.5040,0.0,
,,,-1.5000,-20.0000,,,,,-1.5000,-199.99999E-3,
,,,-1.4960,-20.0000,,,,,-1.4960,-199.99999E-3,
,,,-1.4920,0.0,,,,,-1.4920,-199.99999E-3,
,,,-1.4880,-20.0000,,,,,-1.4880,-199.99999E-3,
,,,-1.4840,-20.0000,,,,,-1.4840,-199.99999E-3,
,,,-1.4800,-20.0000,,,,,-1.4800,-199.99999E-3,
,,,-1.4760,-20.0000,,,,,-1.4760,0.0,
,,,-1.4720,-20.0000,,,,,-1.4720,-199.99999E-3,
,,,-1.4680,-20.0000,,,,,-1.4680,0.0,
,,,-1.4640,-20.0000,,,,,-1.4640,0.0,
,,,-1.4600,0.0,,,,,-1.4600,-199.99999E-3,
,,,-1.4560,-20.0000,,,,,-1.4560,-199.99999E-3,
,,,-1.4520,-20.0000,,,,,-1.4520,-199.99999E-3,
,,,-1.4480,-20.0000,,,,,-1.4480,-199.99999E-3,
,,,-1.4440,-20.0000,,,,,-1.4440,-199.99999E-3,
,,,-1.4400,-20.0000,,,,,-1.4400,0.0,
,,,-1.4360,-20.0000,,,,,-1.4360,-199.99999E-3,
,,,-1.4320,-20.0000,,,,,-1.4320,-199.99999E-3,
,,,-1.4280,-20.0000,,,,,-1.4280,-199.99999E-3,
,,,-1.4240,-20.0000,,,,,-1.4240,0.0,
,,,-1.4200,-20.0000,,,,,-1.4200,-199.99999E-3,
,,,-1.4160,-20.0000,,,,,-1.4160,-199.99999E-3,
,,,-1.4120,-20.0000,,,,,-1.4120,0.0,
,,,-1.4080,-20.0000,,,,,-1.4080,0.0,
,,,-1.4040,-20.0000,,,,,-1.4040,0.0,
,,,-1.4000,-20.0000,,,,,-1.4000,-199.99999E-3,
,,,-1.3960,-20.0000,,,,,-1.3960,-199.99999E-3,
,,,-1.3920,-20.0000,,,,,-1.3920,0.0,
,,,-1.3880,-20.0000,,,,,-1.3880,-199.99999E-3,
,,,-1.3840,-20.0000,,,,,-1.3840,-199.99999E-3,
,,,-1.3800,-20.0000,,,,,-1.3800,0.0,
,,,-1.3760,-40.00000,,,,,-1.3760,0.0,
,,,-1.3720,0.0,,,,,-1.3720,0.0,
,,,-1.3680,-20.0000,,,,,-1.3680,-199.99999E-3,
,,,-1.3640,-20.0000,,,,,-1.3640,0.0,
,,,-1.3600,-20.0000,,,,,-1.3600,0.0,
,,,-1.3560,0.0,,,,,-1.3560,-199.99999E-3,
,,,-1.3520,0.0,,,,,-1.3520,0.0,
,,,-1.3480,-20.0000,,,,,-1.3480,-199.99999E-3,
,,,-1.3440,-20.0000,,,,,-1.3440,-199.99999E-3,
,,,-1.3400,-20.0000,,,,,-1.3400,-199.99999E-3,
,,,-1.3360,-20.0000,,,,,-1.3360,-199.99999E-3,
,,,-1.3320,-20.0000,,,,,-1.3320,-199.99999E-3,
,,,-1.3280,-20.0000,,,,,-1.3280,-199.99999E-3,
,,,-1.3240,0.0,,,,,-1.3240,-199.99999E-3,
,,,-1.3200,-20.0000,,,,,-1.3200,-199.99999E-3,
,,,-1.3160,-20.0000,,,,,-1.3160,-199.99999E-3,
,,,-1.3120,0.0,,,,,-1.3120,-199.99999E-3,
,,,-1.3080,-20.0000,,,,,-1.3080,0.0,
,,,-1.3040,-20.0000,,,,,-1.3040,-199.99999E-3,
,,,-1.3000,0.0,,,,,-1.3000,0.0,
,,,-1.2960,-20.0000,,,,,-1.2960,0.0,
,,,-1.2920,0.0,,,,,-1.2920,-199.99999E-3,
,,,-1.2880,-20.0000,,,,,-1.2880,-199.99999E-3,
,,,-1.2840,-20.0000,,,,,-1.2840,0.0,
,,,-1.2800,-20.0000,,,,,-1.2800,-199.99999E-3,
,,,-1.2760,0.0,,,,,-1.2760,-199.99999E-3,
,,,-1.2720,-20.0000,,,,,-1.2720,0.0,
,,,-1.2680,-20.0000,,,,,-1.2680,-199.99999E-3,
,,,-1.2640,-20.0000,,,,,-1.2640,0.0,
,,,-1.2600,-20.0000,,,,,-1.2600,0.0,
,,,-1.2560,-20.0000,,,,,-1.2560,-199.99999E-3,
,,,-1.2520,-20.0000,,,,,-1.2520,-199.99999E-3,
,,,-1.2480,-20.0000,,,,,-1.2480,-199.99999E-3,
,,,-1.2440,-20.0000,,,,,-1.2440,0.0,
,,,-1.2400,-20.0000,,,,,-1.2400,0.0,
,,,-1.2360,-20.0000,,,,,-1.2360,0.0,
,,,-1.2320,-20.0000,,,,,-1.2320,0.0,
,,,-1.2280,-20.0000,,,,,-1.2280,0.0,
,,,-1.2240,0.0,,,,,-1.2240,-199.99999E-3,
,,,-1.2200,0.0,,,,,-1.2200,-199.99999E-3,
,,,-1.2160,-20.0000,,,,,-1.2160,0.0,
,,,-1.2120,-40.00000,,,,,-1.2120,0.0,
,,,-1.2080,-20.0000,,,,,-1.2080,-199.99999E-3,
,,,-1.2040,-20.0000,,,,,-1.2040,0.0,
,,,-1.2000,-20.0000,,,,,-1.2000,0.0,
,,,-1.1960,-20.0000,,,,,-1.1960,0.0,
,,,-1.1920,-20.0000,,,,,-1.1920,-199.99999E-3,
,,,-1.1880,-20.0000,,,,,-1.1880,0.0,
,,,-1.1840,-20.0000,,,,,-1.1840,0.0,
,,,-1.1800,-20.0000,,,,,-1.1800,0.0,
,,,-1.1760,0.0,,,,,-1.1760,0.0,
,,,-1.1720,-20.0000,,,,,-1.1720,0.0,
,,,-1.1680,-20.0000,,,,,-1.1680,0.0,
,,,-1.1640,-20.0000,,,,,-1.1640,0.0,
,,,-1.1600,-20.0000,,,,,-1.1600,-199.99999E-3,
,,,-1.1560,-20.0000,,,,,-1.1560,0.0,
,,,-1.1520,-20.0000,,,,,-1.1520,-199.99999E-3,
,,,-1.1480,-20.0000,,,,,-1.1480,-199.99999E-3,
,,,-1.1440,-20.0000,,,,,-1.1440,0.0,
,,,-1.1400,-20.0000,,,,,-1.1400,-199.99999E-3,
,,,-1.1360,-20.0000,,,,,-1.1360,0.0,
,,,-1.1320,0.0,,,,,-1.1320,0.0,
,,,-1.1280,-20.0000,,,,,-1.1280,-199.99999E-3,
,,,-1.1240,0.0,,,,,-1.1240,0.0,
,,,-1.1200,-20.0000,,,,,-1.1200,0.0,
,,,-1.1160,-20.0000,,,,,-1.1160,0.0,
,,,-1.1120,-20.0000,,,,,-1.1120,0.0,
,,,-1.1080,0.0,,,,,-1.1080,-199.99999E-3,
,,,-1.1040,-20.0000,,,,,-1.1040,0.0,
,,,-1.1000,0.0,,,,,-1.1000,0.0,
,,,-1.0960,0.0,,,,,-1.0960,0.0,
,,,-1.0920,-20.0000,,,,,-1.0920,0.0,
,,,-1.0880,-20.0000,,,,,-1.0880,0.0,
,,,-1.0840,0.0,,,,,-1.0840,-199.99999E-3,
,,,-1.0800,-20.0000,,,,,-1.0800,0.0,
,,,-1.0760,-20.0000,,,,,-1.0760,-199.99999E-3,
,,,-1.0720,0.0,,,,,-1.0720,-199.99999E-3,
,,,-1.0680,-20.0000,,,,,-1.0680,0.0,
,,,-1.0640,-20.0000,,,,,-1.0640,-199.99999E-3,
,,,-1.0600,-20.0000,,,,,-1.0600,-199.99999E-3,
,,,-1.0560,-20.0000,,,,,-1.0560,0.0,
,,,-1.0520,-20.0000,,,,,-1.0520,-199.99999E-3,
,,,-1.0480,-20.0000,,,,,-1.0480,-199.99999E-3,
,,,-1.0440,-20.0000,,,,,-1.0440,0.0,
,,,-1.0400,-20.0000,,,,,-1.0400,0.0,
,,,-1.0360,-20.0000,,,,,-1.0360,0.0,
,,,-1.0320,-20.0000,,,,,-1.0320,-199.99999E-3,
,,,-1.0280,-20.0000,,,,,-1.0280,-199.99999E-3,
,,,-1.0240,-20.0000,,,,,-1.0240,-199.99999E-3,
,,,-1.0200,0.0,,,,,-1.0200,0.0,
,,,-1.0160,-20.0000,,,,,-1.0160,0.0,
,,,-1.0120,-20.0000,,,,,-1.0120,-199.99999E-3,
,,,-1.0080,-20.0000,,,,,-1.0080,0.0,
,,,-1.0040,-20.0000,,,,,-1.0040,-199.99999E-3,
,,,-1.000,-20.0000,,,,,-1.000,0.0,
,,,-995.999932E-3,-20.0000,,,,,-995.999932E-3,-199.99999E-3,
,,,-991.999924E-3,-20.0000,,,,,-991.999924E-3,-199.99999E-3,
,,,-987.999976E-3,-20.0000,,,,,-987.999976E-3,0.0,
,,,-983.999968E-3,-20.0000,,,,,-983.999968E-3,0.0,
,,,-979.999959E-3,-20.0000,,,,,-979.999959E-3,-199.99999E-3,
,,,-975.999951E-3,0.0,,,,,-975.999951E-3,0.0,
,,,-971.999943E-3,-20.0000,,,,,-971.999943E-3,0.0,
,,,-967.999935E-3,-20.0000,,,,,-967.999935E-3,-199.99999E-3,
,,,-963.999927E-3,-20.0000,,,,,-963.999927E-3,-199.99999E-3,
,,,-959.999979E-3,-20.0000,,,,,-959.999979E-3,0.0,
,,,-955.999970E-3,0.0,,,,,-955.999970E-3,-199.99999E-3,
,,,-951.999962E-3,0.0,,,,,-951.999962E-3,-199.99999E-3,
,,,-947.999954E-3,-20.0000,,,,,-947.999954E-3,-199.99999E-3,
,,,-943.999946E-3,-20.0000,,,,,-943.999946E-3,-199.99999E-3,
,,,-939.999938E-3,0.0,,,,,-939.999938E-3,0.0,
,,,-935.999930E-3,-20.0000,,,,,-935.999930E-3,-199.99999E-3,
,,,-931.999922E-3,-20.0000,,,,,-931.999922E-3,-199.99999E-3,
,,,-927.999973E-3,0.0,,,,,-927.999973E-3,0.0,
,,,-923.999965E-3,-20.0000,,,,,-923.999965E-3,-199.99999E-3,
,,,-919.999957E-3,-20.0000,,,,,-919.999957E-3,0.0,
,,,-915.999949E-3,-20.0000,,,,,-915.999949E-3,-199.99999E-3,
,,,-911.999941E-3,-20.0000,,,,,-911.999941E-3,-199.99999E-3,
,,,-907.999933E-3,-20.0000,,,,,-907.999933E-3,0.0,
,,,-903.999925E-3,-20.0000,,,,,-903.999925E-3,-199.99999E-3,
,,,-899.999976E-3,-20.0000,,,,,-899.999976E-3,-199.99999E-3,
,,,-895.999968E-3,0.0,,,,,-895.999968E-3,-199.99999E-3,
,,,-891.999960E-3,-20.0000,,,,,-891.999960E-3,0.0,
,,,-887.999952E-3,-20.0000,,,,,-887.999952E-3,-199.99999E-3,
,,,-883.999944E-3,-20.0000,,,,,-883.999944E-3,0.0,
,,,-879.999936E-3,-20.0000,,,,,-879.999936E-3,0.0,
,,,-875.999928E-3,-20.0000,,,,,-875.999928E-3,0.0,
,,,-871.999919E-3,-20.0000,,,,,-871.999919E-3,0.0,
,,,-867.999971E-3,-20.0000,,,,,-867.999971E-3,-199.99999E-3,
,,,-863.999963E-3,-20.0000,,,,,-863.999963E-3,-199.99999E-3,
,,,-859.999955E-3,-20.0000,,,,,-859.999955E-3,-199.99999E-3,
,,,-855.999947E-3,-20.0000,,,,,-855.999947E-3,0.0,
,,,-851.999938E-3,-20.0000,,,,,-851.999938E-3,0.0,
,,,-847.999930E-3,-20.0000,,,,,-847.999930E-3,0.0,
,,,-843.999922E-3,-20.0000,,,,,-843.999922E-3,-199.99999E-3,
,,,-839.999974E-3,-20.0000,,,,,-839.999974E-3,0.0,
,,,-835.999966E-3,-20.0000,,,,,-835.999966E-3,-199.99999E-3,
,,,-831.999958E-3,-20.0000,,,,,-831.999958E-3,0.0,
,,,-827.999949E-3,-40.00000,,,,,-827.999949E-3,-199.99999E-3,
,,,-823.999941E-3,-20.0000,,,,,-823.999941E-3,-199.99999E-3,
,,,-819.999933E-3,-20.0000,,,,,-819.999933E-3,-199.99999E-3,
,,,-815.999925E-3,-20.0000,,,,,-815.999925E-3,-199.99999E-3,
,,,-811.999917E-3,-20.0000,,,,,-811.999917E-3,-199.99999E-3,
,,,-807.999969E-3,0.0,,,,,-807.999969E-3,-199.99999E-3,
,,,-803.999960E-3,-20.0000,,,,,-803.999960E-3,-199.99999E-3,
,,,-799.999952E-3,0.0,,,,,-799.999952E-3,0.0,
,,,-795.999944E-3,-20.0000,,,,,-795.999944E-3,0.0,
,,,-791.999936E-3,-20.0000,,,,,-791.999936E-3,0.0,
,,,-787.999928E-3,0.0,,,,,-787.999928E-3,0.0,
,,,-783.999920E-3,0.0,,,,,-783.999920E-3,0.0,
,,,-779.999971E-3,-20.0000,,,,,-779.999971E-3,-199.99999E-3,
,,,-775.999963E-3,-20.0000,,,,,-775.999963E-3,0.0,
,,,-771.999955E-3,-20.0000,,,,,-771.999955E-3,0.0,
,,,-767.999947E-3,-20.0000,,,,,-767.999947E-3,0.0,
,,,-763.999939E-3,-20.0000,,,,,-763.999939E-3,-199.99999E-3,
,,,-759.999931E-3,-20.0000,,,,,-759.999931E-3,-199.99999E-3,
,,,-755.999923E-3,-20.0000,,,,,-755.999923E-3,-199.99999E-3,
,,,-751.999915E-3,-20.0000,,,,,-751.999915E-3,0.0,
,,,-747.999966E-3,0.0,,,,,-747.999966E-3,-199.99999E-3,
,,,-743.999958E-3,-40.00000,,,,,-743.999958E-3,0.0,
,,,-739.999950E-3,-20.0000,,,,,-739.999950E-3,0.0,
,,,-735.999942E-3,-20.0000,,,,,-735.999942E-3,-199.99999E-3,
,,,-731.999934E-3,0.0,,,,,-731.999934E-3,-199.99999E-3,
,,,-727.999926E-3,-20.0000,,,,,-727.999926E-3,0.0,
,,,-723.999918E-3,-20.0000,,,,,-723.999918E-3,-199.99999E-3,
,,,-719.999969E-3,-20.0000,,,,,-719.999969E-3,0.0,
,,,-715.999961E-3,-20.0000,,,,,-715.999961E-3,-199.99999E-3,
,,,-711.999953E-3,-20.0000,,,,,-711.999953E-3,-199.99999E-3,
,,,-707.999945E-3,-20.0000,,,,,-707.999945E-3,-199.99999E-3,
,,,-703.999937E-3,-20.0000,,,,,-703.999937E-3,-199.99999E-3,
,,,-699.999928E-3,0.0,,,,,-699.999928E-3,-199.99999E-3,
,,,-695.999920E-3,0.0,,,,,-695.999920E-3,-199.99999E-3,
,,,-691.999912E-3,-20.0000,,,,,-691.999912E-3,0.0,
,,,-687.999964E-3,-20.0000,,,,,-687.999964E-3,-199.99999E-3,
,,,-683.999956E-3,-20.0000,,,,,-683.999956E-3,0.0,
,,,-679.999948E-3,-20.0000,,,,,-679.999948E-3,0.0,
,,,-675.999939E-3,-20.0000,,,,,-675.999939E-3,-199.99999E-3,
,,,-671.999931E-3,-20.0000,,,,,-671.999931E-3,0.0,
,,,-667.999923E-3,-20.0000,,,,,-667.999923E-3,-199.99999E-3,
,,,-663.999915E-3,0.0,,,,,-663.999915E-3,0.0,
,,,-659.999967E-3,-20.0000,,,,,-659.999967E-3,0.0,
,,,-655.999959E-3,-20.0000,,,,,-655.999959E-3,-199.99999E-3,
,,,-651.999950E-3,-20.0000,,,,,-651.999950E-3,-199.99999E-3,
,,,-647.999942E-3,-20.0000,,,,,-647.999942E-3,-199.99999E-3,
,,,-643.999934E-3,-20.0000,,,,,-643.999934E-3,0.0,
,,,-639.999926E-3,-20.0000,,,,,-639.999926E-3,0.0,
,,,-635.999918E-3,-20.0000,,,,,-635.999918E-3,0.0,
,,,-631.999910E-3,-20.0000,,,,,-631.999910E-3,0.0,
,,,-627.999961E-3,-20.0000,,,,,-627.999961E-3,-199.99999E-3,
,,,-623.999953E-3,-20.0000,,,,,-623.999953E-3,-199.99999E-3,
,,,-619.999945E-3,-20.0000,,,,,-619.999945E-3,-199.99999E-3,
,,,-615.999937E-3,-20.0000,,,,,-615.999937E-3,0.0,
,,,-611.999929E-3,-20.0000,,,,,-611.999929E-3,-199.99999E-3,
,,,-607.999921E-3,-20.0000,,,,,-607.999921E-3,-199.99999E-3,
,,,-603.999913E-3,-20.0000,,,,,-603.999913E-3,-199.99999E-3,
,,,-599.999905E-3,-20.0000,,,,,-599.999905E-3,0.0,
,,,-595.999956E-3,-20.0000,,,,,-595.999956E-3,0.0,
,,,-591.999948E-3,-20.0000,,,,,-591.999948E-3,0.0,
,,,-587.999940E-3,0.0,,,,,-587.999940E-3,-199.99999E-3,
,,,-583.999932E-3,20.0000,,,,,-583.999932E-3,-199.99999E-3,
,,,-579.999924E-3,60.000000,,,,,-579.999924E-3,0.0,
,,,-575.999916E-3,80.000000,,,,,-575.999916E-3,0.0,
,,,-571.999907E-3,100.0000,,,,,-571.999907E-3,0.0,
,,,-567.999959E-3,120.0000,,,,,-567.999959E-3,-199.99999E-3,
,,,-563.999951E-3,140.0000,,,,,-563.999951E-3,0.0,
,,,-559.999943E-3,180.00000,,,,,-559.999943E-3,-199.99999E-3,
,,,-555.999935E-3,180.00000,,,,,-555.999935E-3,-199.99999E-3,
,,,-551.999927E-3,240.00000,,,,,-551.999927E-3,0.0,
,,,-547.999918E-3,240.00000,,,,,-547.999918E-3,0.0,
,,,-543.999910E-3,260.00000,,,,,-543.999910E-3,0.0,
,,,-539.999902E-3,280.00000,,,,,-539.999902E-3,0.0,
,,,-535.999954E-3,300.00000,,,,,-535.999954E-3,0.0,
,,,-531.999946E-3,340.00000,,,,,-531.999946E-3,-199.99999E-3,
,,,-527.999938E-3,360.00000,,,,,-527.999938E-3,-199.99999E-3,
,,,-523.999929E-3,360.00000,,,,,-523.999929E-3,0.0,
,,,-519.999921E-3,400.00000,,,,,-519.999921E-3,0.0,
,,,-515.999913E-3,400.00000,,,,,-515.999913E-3,0.0,
,,,-511.999905E-3,440.000000,,,,,-511.999905E-3,0.0,
,,,-507.999957E-3,460.000000,,,,,-507.999957E-3,-199.99999E-3,
,,,-503.999949E-3,460.000000,,,,,-503.999949E-3,0.0,
,,,-499.999940E-3,500.000000,,,,,-499.999940E-3,0.0,
,,,-495.999932E-3,500.000000,,,,,-495.999932E-3,0.0,
,,,-491.999924E-3,520.000000,,,,,-491.999924E-3,0.0,
,,,-487.999916E-3,540.000000,,,,,-487.999916E-3,-199.99999E-3,
,,,-483.999938E-3,560.000000,,,,,-483.999938E-3,-199.99999E-3,
,,,-479.999930E-3,560.000000,,,,,-479.999930E-3,0.0,
,,,-475.999922E-3,600.000000,,,,,-475.999922E-3,0.0,
,,,-471.999943E-3,600.000000,,,,,-471.999943E-3,-199.99999E-3,
,,,-467.999935E-3,620.000000,,,,,-467.999935E-3,0.0,
,,,-463.999927E-3,640.000000,,,,,-463.999927E-3,0.0,
,,,-459.999919E-3,660.000000,,,,,-459.999919E-3,0.0,
,,,-455.999941E-3,660.000000,,,,,-455.999941E-3,-199.99999E-3,
,,,-451.999933E-3,680.000000,,,,,-451.999933E-3,0.0,
,,,-447.999924E-3,680.000000,,,,,-447.999924E-3,-199.99999E-3,
,,,-443.999916E-3,700.000000,,,,,-443.999916E-3,-199.99999E-3,
,,,-439.999938E-3,740.000000,,,,,-439.999938E-3,0.0,
,,,-435.999930E-3,740.000000,,,,,-435.999930E-3,-199.99999E-3,
,,,-431.999922E-3,760.000000,,,,,-431.999922E-3,-199.99999E-3,
,,,-427.999914E-3,760.000000,,,,,-427.999914E-3,0.0,
,,,-423.999935E-3,780.000000,,,,,-423.999935E-3,0.0,
,,,-419.999927E-3,780.000000,,,,,-419.999927E-3,-199.99999E-3,
,,,-415.999919E-3,780.000000,,,,,-415.999919E-3,-199.99999E-3,
,,,-411.999911E-3,800.000000,,,,,-411.999911E-3,0.0,
,,,-407.999933E-3,820.000000,,,,,-407.999933E-3,-199.99999E-3,
,,,-403.999925E-3,840.000000,,,,,-403.999925E-3,-199.99999E-3,
,,,-399.99992E-3,860.000000,,,,,-399.99992E-3,0.0,
,,,-395.99994E-3,860.000000,,,,,-395.99994E-3,-199.99999E-3,
,,,-391.99993E-3,880.000000,,,,,-391.99993E-3,0.0,
,,,-387.99992E-3,880.000000,,,,,-387.99992E-3,-199.99999E-3,
,,,-383.99991E-3,900.000000,,,,,-383.99991E-3,-199.99999E-3,
,,,-379.99994E-3,920.000000,,,,,-379.99994E-3,0.0,
,,,-375.99993E-3,900.000000,,,,,-375.99993E-3,0.0,
,,,-371.99992E-3,940.000000,,,,,-371.99992E-3,0.0,
,,,-367.99991E-3,940.000000,,,,,-367.99991E-3,0.0,
,,,-363.99993E-3,940.000000,,,,,-363.99993E-3,0.0,
,,,-359.99992E-3,960.000000,,,,,-359.99992E-3,0.0,
,,,-355.99992E-3,960.000000,,,,,-355.99992E-3,0.0,
,,,-351.99991E-3,980.000000,,,,,-351.99991E-3,0.0,
,,,-347.99993E-3,980.000000,,,,,-347.99993E-3,0.0,
,,,-343.99992E-3,980.000000,,,,,-343.99992E-3,0.0,
,,,-339.99991E-3,1.0000E3,,,,,-339.99991E-3,0.0,
,,,-335.99994E-3,1.0000E3,,,,,-335.99994E-3,0.0,
,,,-331.99993E-3,1.0200E3,,,,,-331.99993E-3,0.0,
,,,-327.99992E-3,1.0200E3,,,,,-327.99992E-3,199.99999E-3,
,,,-323.99991E-3,1.0400E3,,,,,-323.99991E-3,0.0,
,,,-319.99993E-3,1.0400E3,,,,,-319.99993E-3,199.99999E-3,
,,,-315.99993E-3,1.0600E3,,,,,-315.99993E-3,199.99999E-3,
,,,-311.99992E-3,1.0600E3,,,,,-311.99992E-3,0.0,
,,,-307.99991E-3,1.0400E3,,,,,-307.99991E-3,199.99999E-3,
,,,-303.99993E-3,1.0800E3,,,,,-303.99993E-3,399.99998E-3,
,,,-299.99992E-3,1.0800E3,,,,,-299.99992E-3,199.99999E-3,
,,,-295.99991E-3,1.0800E3,,,,,-295.99991E-3,199.99999E-3,
,,,-291.99991E-3,1.1000E3,,,,,-291.99991E-3,199.99999E-3,
,,,-287.99993E-3,1.1000E3,,,,,-287.99993E-3,199.99999E-3,
,,,-283.99992E-3,1.1000E3,,,,,-283.99992E-3,399.99998E-3,
,,,-279.99991E-3,1.1200E3,,,,,-279.99991E-3,399.99998E-3,
,,,-275.99993E-3,1.1200E3,,,,,-275.99993E-3,399.99998E-3,
,,,-271.99993E-3,1.1400E3,,,,,-271.99993E-3,399.99998E-3,
,,,-267.99992E-3,1.1200E3,,,,,-267.99992E-3,399.99998E-3,
,,,-263.99991E-3,1.1400E3,,,,,-263.99991E-3,599.999964E-3,
,,,-259.99993E-3,1.1600E3,,,,,-259.99993E-3,599.999964E-3,
,,,-255.99992E-3,1.1600E3,,,,,-255.99992E-3,399.99998E-3,
